<?xml version="1.0" encoding="UTF-8" standalone="no"?>
<!-- Created with Inkscape (http://www.inkscape.org/) -->

<svg
   xmlns:dc="http://purl.org/dc/elements/1.1/"
   xmlns:cc="http://creativecommons.org/ns#"
   xmlns:rdf="http://www.w3.org/1999/02/22-rdf-syntax-ns#"
   xmlns:svg="http://www.w3.org/2000/svg"
   xmlns="http://www.w3.org/2000/svg"
   xmlns:sodipodi="http://sodipodi.sourceforge.net/DTD/sodipodi-0.dtd"
   xmlns:inkscape="http://www.inkscape.org/namespaces/inkscape"
   width="448.582"
   height="394.62128"
   id="svg2"
   version="1.1"
   inkscape:version="0.48.4 r9939"
   sodipodi:docname="runge-kutta.svg">
  <defs
     id="defs4" />
  <sodipodi:namedview
     id="base"
     pagecolor="#ffffff"
     bordercolor="#666666"
     borderopacity="1.0"
     inkscape:pageopacity="0.0"
     inkscape:pageshadow="2"
     inkscape:zoom="1.4"
     inkscape:cx="251.54166"
     inkscape:cy="109.58483"
     inkscape:document-units="px"
     inkscape:current-layer="layer1"
     showgrid="false"
     inkscape:window-width="960"
     inkscape:window-height="1028"
     inkscape:window-x="0"
     inkscape:window-y="24"
     inkscape:window-maximized="0"
     fit-margin-top="0"
     fit-margin-left="0"
     fit-margin-right="0"
     fit-margin-bottom="0" />
  <metadata
     id="metadata7">
    <rdf:RDF>
      <cc:Work
         rdf:about="">
        <dc:format>image/svg+xml</dc:format>
        <dc:type
           rdf:resource="http://purl.org/dc/dcmitype/StillImage" />
        <dc:title />
      </cc:Work>
    </rdf:RDF>
  </metadata>
  <g
     inkscape:label="Layer 1"
     inkscape:groupmode="layer"
     id="layer1"
     transform="translate(-93.444187,-196.10118)">
    <path
       style="fill:none;stroke:#000000;stroke-width:1px;stroke-linecap:butt;stroke-linejoin:miter;stroke-opacity:1"
       d="m 145.46197,228.07771 0,322.23866 393.95949,0"
       id="path2985"
       inkscape:connector-curvature="0" />
    <path
       style="fill:none;stroke:#000000;stroke-width:1px;stroke-linecap:butt;stroke-linejoin:miter;stroke-opacity:1"
       d="m 92.934034,346.13395 c 0,3.7039 0,7.40779 0,11.11168"
       id="path3977"
       inkscape:connector-curvature="0"
       transform="translate(93.444187,196.10118)" />
    <path
       style="fill:none;stroke:#000000;stroke-width:1px;stroke-linecap:butt;stroke-linejoin:miter;stroke-opacity:1"
       d="m 475.28185,539.70975 c 0,3.7039 0,7.40779 0,11.11168"
       id="path3977-3"
       inkscape:connector-curvature="0" />
    <path
       style="fill:none;stroke:#000000;stroke-width:1px;stroke-linecap:butt;stroke-linejoin:miter;stroke-opacity:1"
       d="M 90.913729,286.53495 C 214.51276,255.91736 333.86689,221.05487 380.82751,113.79887"
       id="path3997"
       inkscape:connector-curvature="0"
       transform="translate(93.444187,196.10118)"
       sodipodi:nodetypes="cc" />
    <path
       style="fill:none;stroke:#c84242;stroke-width:1;stroke-linecap:butt;stroke-linejoin:miter;stroke-opacity:1;stroke-miterlimit:4;stroke-dasharray:1, 1;stroke-dashoffset:0;color:#000000;marker:none;visibility:visible;display:inline;overflow:visible;enable-background:accumulate"
       d="M -18.182746,310.77862 223.24371,257.24053"
       id="path3999"
       inkscape:connector-curvature="0"
       transform="translate(93.444187,196.10118)" />
    <path
       style="fill:none;stroke:#c84242;stroke-width:1;stroke-linecap:butt;stroke-linejoin:miter;stroke-miterlimit:4;stroke-opacity:1;stroke-dasharray:1, 1;stroke-dashoffset:0;color:#000000;marker:none;visibility:visible;display:inline;overflow:visible;enable-background:accumulate"
       d="M 440.43158,413.44068 507.10165,245.75535"
       id="path3999-5"
       inkscape:connector-curvature="0"
       sodipodi:nodetypes="cc" />
    <path
       transform="translate(442.95696,507.22816)"
       sodipodi:type="arc"
       style="color:#000000;fill:#000000;fill-opacity:1;stroke:none;stroke-width:1;marker:none;visibility:visible;display:inline;overflow:visible;enable-background:accumulate"
       id="path4038-7"
       sodipodi:cx="-256.57874"
       sodipodi:cy="-24.59203"
       sodipodi:rx="6.0609155"
       sodipodi:ry="6.0609155"
       d="m -250.51782,-24.59203 c 0,3.347352 -2.71356,6.060916 -6.06092,6.060916 -3.34735,0 -6.06091,-2.713564 -6.06091,-6.060916 0,-3.347351 2.71356,-6.060915 6.06091,-6.060915 3.34736,0 6.06092,2.713564 6.06092,6.060915 z" />
    <path
       transform="translate(613.67274,470.86267)"
       sodipodi:type="arc"
       style="color:#000000;fill:#000000;fill-opacity:1;stroke:none;stroke-width:1;marker:none;visibility:visible;display:inline;overflow:visible;enable-background:accumulate"
       id="path4038-1"
       sodipodi:cx="-256.57874"
       sodipodi:cy="-24.59203"
       sodipodi:rx="6.0609155"
       sodipodi:ry="6.0609155"
       d="m -250.51782,-24.59203 c 0,3.347352 -2.71356,6.060916 -6.06092,6.060916 -3.34735,0 -6.06091,-2.713564 -6.06091,-6.060916 0,-3.347351 2.71356,-6.060915 6.06091,-6.060915 3.34736,0 6.06092,2.713564 6.06092,6.060915 z" />
    <path
       transform="translate(609.63213,419.34489)"
       sodipodi:type="arc"
       style="color:#000000;fill:#000000;fill-opacity:1;stroke:none;stroke-width:1;marker:none;visibility:visible;display:inline;overflow:visible;enable-background:accumulate"
       id="path4038-72"
       sodipodi:cx="-256.57874"
       sodipodi:cy="-24.59203"
       sodipodi:rx="6.0609155"
       sodipodi:ry="6.0609155"
       d="m -250.51782,-24.59203 c 0,3.347352 -2.71356,6.060916 -6.06092,6.060916 -3.34735,0 -6.06091,-2.713564 -6.06091,-6.060916 0,-3.347351 2.71356,-6.060915 6.06091,-6.060915 3.34736,0 6.06092,2.713564 6.06092,6.060915 z" />
    <path
       transform="translate(731.86058,349.64437)"
       sodipodi:type="arc"
       style="color:#000000;fill:#000000;fill-opacity:1;stroke:none;stroke-width:1;marker:none;visibility:visible;display:inline;overflow:visible;enable-background:accumulate"
       id="path4038-73"
       sodipodi:cx="-256.57874"
       sodipodi:cy="-24.59203"
       sodipodi:rx="6.0609155"
       sodipodi:ry="6.0609155"
       d="m -250.51782,-24.59203 c 0,3.347352 -2.71356,6.060916 -6.06092,6.060916 -3.34735,0 -6.06091,-2.713564 -6.06091,-6.060916 0,-3.347351 2.71356,-6.060915 6.06091,-6.060915 3.34736,0 6.06092,2.713564 6.06092,6.060915 z" />
    <path
       style="fill:none;stroke:#c84242;stroke-width:1;stroke-linecap:butt;stroke-linejoin:miter;stroke-miterlimit:4;stroke-opacity:1;stroke-dasharray:1, 1;stroke-dashoffset:0;color:#000000;marker:none;visibility:visible;display:inline;overflow:visible;enable-background:accumulate"
       d="M 294.46454,482.63614 418.71331,411.92545"
       id="path3999-5-2"
       inkscape:connector-curvature="0"
       sodipodi:nodetypes="cc" />
    <path
       style="fill:none;stroke:#c84242;stroke-width:1;stroke-linecap:butt;stroke-linejoin:miter;stroke-miterlimit:4;stroke-opacity:1;stroke-dasharray:1, 1;stroke-dashoffset:0;color:#000000;marker:none;visibility:visible;display:inline;overflow:visible;enable-background:accumulate"
       d="M 292.94931,429.09806 417.19808,358.38737"
       id="path3999-5-2-0"
       inkscape:connector-curvature="0"
       sodipodi:nodetypes="cc" />
    <text
       xml:space="preserve"
       style="font-size:40px;font-style:normal;font-weight:normal;line-height:125%;letter-spacing:0px;word-spacing:0px;fill:#000000;fill-opacity:1;stroke:none;font-family:Sans"
       x="76.771591"
       y="250.16946"
       id="text4115"
       sodipodi:linespacing="125%"
       transform="translate(93.444187,196.10118)"><tspan
         sodipodi:role="line"
         id="tspan4117"
         x="76.771591"
         y="250.16946">m<tspan
   style="font-size:65%;baseline-shift:sub"
   id="tspan4119">1</tspan></tspan></text>
    <text
       xml:space="preserve"
       style="font-size:40px;font-style:normal;font-weight:normal;line-height:125%;letter-spacing:0px;word-spacing:0px;fill:#000000;fill-opacity:1;stroke:none;font-family:Sans"
       x="340.83585"
       y="489.83731"
       id="text4115-8"
       sodipodi:linespacing="125%"><tspan
         sodipodi:role="line"
         id="tspan4117-1"
         x="340.83585"
         y="489.83731">m<tspan
   style="font-size:65.00091553%;baseline-shift:sub"
   id="tspan4119-2">2</tspan></tspan></text>
    <text
       xml:space="preserve"
       style="font-size:40px;font-style:normal;font-weight:normal;line-height:125%;letter-spacing:0px;word-spacing:0px;fill:#000000;fill-opacity:1;stroke:none;font-family:Sans"
       x="320.63281"
       y="373.66977"
       id="text4115-1"
       sodipodi:linespacing="125%"><tspan
         sodipodi:role="line"
         id="tspan4117-9"
         x="320.63281"
         y="373.66977">m<tspan
   style="font-size:65%;baseline-shift:sub"
   id="tspan4167">3</tspan></tspan></text>
    <text
       xml:space="preserve"
       style="font-size:40px;font-style:normal;font-weight:normal;line-height:125%;letter-spacing:0px;word-spacing:0px;fill:#000000;fill-opacity:1;stroke:none;font-family:Sans"
       x="482.2572"
       y="358.51749"
       id="text4115-0"
       sodipodi:linespacing="125%"><tspan
         sodipodi:role="line"
         id="tspan4117-6"
         x="482.2572"
         y="358.51749">m<tspan
   style="font-size:65.00091553%;baseline-shift:sub"
   id="tspan4119-3">4</tspan></tspan></text>
    <text
       sodipodi:linespacing="125%"
       id="text2987"
       y="257.37213"
       x="100.0051"
       style="font-size:40px;font-style:normal;font-weight:normal;line-height:125%;letter-spacing:0px;word-spacing:0px;fill:#000000;fill-opacity:1;stroke:none;font-family:Sans"
       xml:space="preserve"><tspan
         style="font-style:italic;-inkscape-font-specification:Sans Italic"
         y="257.37213"
         x="100.0051"
         id="tspan2989"
         sodipodi:role="line">y</tspan></text>
    <text
       sodipodi:linespacing="125%"
       id="text2991"
       y="583.65137"
       x="181.82745"
       style="font-size:40px;font-style:normal;font-weight:normal;line-height:125%;letter-spacing:0px;word-spacing:0px;fill:#000000;fill-opacity:1;stroke:none;font-family:Sans"
       xml:space="preserve"><tspan
         style="font-style:italic;-inkscape-font-specification:Sans Italic"
         y="583.65137"
         x="181.82745"
         id="tspan2993"
         sodipodi:role="line">t</tspan></text>
    <text
       sodipodi:linespacing="125%"
       id="text2991-0"
       y="584.56238"
       x="414.85352"
       style="font-size:40px;font-style:normal;font-weight:normal;line-height:125%;letter-spacing:0px;word-spacing:0px;fill:#000000;fill-opacity:1;stroke:none;font-family:Sans"
       xml:space="preserve"><tspan
         style="font-style:italic;-inkscape-font-specification:Sans Italic"
         y="584.56238"
         x="414.85352"
         id="tspan2993-7"
         sodipodi:role="line">t + <tspan
   id="tspan2994"
   style="font-style:normal;-inkscape-font-specification:Sans">Δ</tspan>t</tspan></text>
  </g>
</svg>
