<?xml version="1.0" encoding="UTF-8" standalone="no"?>
<!-- Created with Inkscape (http://www.inkscape.org/) -->

<svg
   xmlns:dc="http://purl.org/dc/elements/1.1/"
   xmlns:cc="http://creativecommons.org/ns#"
   xmlns:rdf="http://www.w3.org/1999/02/22-rdf-syntax-ns#"
   xmlns:svg="http://www.w3.org/2000/svg"
   xmlns="http://www.w3.org/2000/svg"
   xmlns:sodipodi="http://sodipodi.sourceforge.net/DTD/sodipodi-0.dtd"
   xmlns:inkscape="http://www.inkscape.org/namespaces/inkscape"
   width="673.02423"
   height="494.14166"
   id="svg2"
   version="1.1"
   inkscape:version="0.92.4 (5da689c313, 2019-01-14)"
   sodipodi:docname="drawing.svg">
  <defs
     id="defs4">
    <marker
       inkscape:stockid="Arrow1Mend"
       orient="auto"
       refY="0"
       refX="0"
       id="Arrow1Mend"
       style="overflow:visible">
      <path
         id="path3772"
         d="M 0,0 5,-5 -12.5,0 5,5 Z"
         style="fill-rule:evenodd;stroke:#000000;stroke-width:1.00000003pt"
         transform="matrix(-0.4,0,0,-0.4,-4,0)"
         inkscape:connector-curvature="0" />
    </marker>
    <inkscape:path-effect
       effect="spiro"
       id="path-effect2989"
       is_visible="true" />
    <marker
       inkscape:stockid="Arrow1Mend"
       orient="auto"
       refY="0"
       refX="0"
       id="Arrow1Mend-8"
       style="overflow:visible">
      <path
         inkscape:connector-curvature="0"
         id="path3772-1"
         d="M 0,0 5,-5 -12.5,0 5,5 Z"
         style="fill-rule:evenodd;stroke:#000000;stroke-width:1.00000003pt"
         transform="matrix(-0.4,0,0,-0.4,-4,0)" />
    </marker>
    <inkscape:path-effect
       effect="spiro"
       id="path-effect2989-1"
       is_visible="true" />
  </defs>
  <sodipodi:namedview
     id="base"
     pagecolor="#ffffff"
     bordercolor="#666666"
     borderopacity="1.0"
     inkscape:pageopacity="0.0"
     inkscape:pageshadow="2"
     inkscape:zoom="1.4"
     inkscape:cx="354.22506"
     inkscape:cy="28.068245"
     inkscape:document-units="px"
     inkscape:current-layer="layer1"
     showgrid="false"
     inkscape:window-width="1920"
     inkscape:window-height="1016"
     inkscape:window-x="0"
     inkscape:window-y="27"
     inkscape:window-maximized="1"
     fit-margin-top="0"
     fit-margin-left="0"
     fit-margin-right="0"
     fit-margin-bottom="0" />
  <metadata
     id="metadata7">
    <rdf:RDF>
      <cc:Work
         rdf:about="">
        <dc:format>image/svg+xml</dc:format>
        <dc:type
           rdf:resource="http://purl.org/dc/dcmitype/StillImage" />
        <dc:title />
      </cc:Work>
    </rdf:RDF>
  </metadata>
  <g
     inkscape:label="Layer 1"
     inkscape:groupmode="layer"
     id="layer1"
     transform="translate(-58.571429,-90.433609)">
    <rect
       style="color:#000000;display:inline;overflow:visible;visibility:visible;fill:none;stroke:#000000;stroke-width:1px;stroke-linecap:butt;stroke-linejoin:miter;stroke-miterlimit:4;stroke-dasharray:none;stroke-dashoffset:0;stroke-opacity:1;marker:none;enable-background:accumulate"
       id="rect2985"
       width="570"
       height="78.571426"
       x="94.285713"
       y="90.933609" />
    <path
       style="fill:none;stroke:#000000;stroke-width:1px;stroke-linecap:butt;stroke-linejoin:miter;stroke-opacity:1;marker-end:url(#Arrow1Mend)"
       d="M 58.571429,125.21932 H 218.57143"
       id="path2987"
       inkscape:path-effect="#path-effect2989"
       inkscape:original-d="M 58.571429,125.21932 H 218.57143"
       inkscape:connector-curvature="0" />
    <path
       style="fill:none;stroke:#000000;stroke-width:1px;stroke-linecap:butt;stroke-linejoin:miter;stroke-opacity:1;marker-end:url(#Arrow1Mend)"
       d="m 569.625,132.36218 h 160"
       id="path2987-4"
       inkscape:path-effect="#path-effect2989-1"
       inkscape:original-d="m 569.625,132.36218 h 160"
       inkscape:connector-curvature="0" />
    <path
       style="fill:none;stroke:#000000;stroke-width:1px;stroke-linecap:butt;stroke-linejoin:miter;stroke-opacity:1"
       d="M 98.571429,218.07647 V 363.79075 H 657.14286"
       id="path4234"
       inkscape:connector-curvature="0" />
    <path
       style="fill:#ff7e7e;stroke:#000000;stroke-width:1px;stroke-linecap:butt;stroke-linejoin:miter;stroke-opacity:1;fill-opacity:1"
       d="m 112.12693,344.24525 h 16.16244 l 9.09138,-110.10663 4.04061,110.10663 h 18.18274"
       id="path4236"
       inkscape:connector-curvature="0" />
    <path
       style="fill:#ff7e7e;stroke:#000000;stroke-width:1px;stroke-linecap:butt;stroke-linejoin:miter;stroke-opacity:1;font-variant-east_asian:normal;opacity:1;vector-effect:none;fill-opacity:1;stroke-miterlimit:4;stroke-dasharray:none;stroke-dashoffset:0"
       d="m 280.31733,343.74017 h 16.16244 l 9.09138,-110.10663 4.04061,110.10663 h 18.18274"
       id="path4236-7"
       inkscape:connector-curvature="0" />
    <path
       style="fill:#ff7e7e;stroke:#000000;stroke-width:1px;stroke-linecap:butt;stroke-linejoin:miter;stroke-opacity:1;font-variant-east_asian:normal;opacity:1;vector-effect:none;fill-opacity:1;stroke-miterlimit:4;stroke-dasharray:none;stroke-dashoffset:0"
       d="m 601.54584,340.70971 h 16.16244 l 9.09138,-110.10663 4.04061,110.10663 h 18.18274"
       id="path4236-8"
       inkscape:connector-curvature="0" />
    <path
       style="fill:none;stroke:#000000;stroke-width:1px;stroke-linecap:butt;stroke-linejoin:miter;stroke-opacity:1"
       d="M 98.571429,406.74855 V 552.46283 H 657.14286"
       id="path4234-4"
       inkscape:connector-curvature="0" />
    <path
       style="fill:#ff7e7e;stroke:#000000;stroke-width:1px;stroke-linecap:butt;stroke-linejoin:miter;stroke-opacity:1;font-variant-east_asian:normal;opacity:1;vector-effect:none;fill-opacity:1;stroke-miterlimit:4;stroke-dasharray:none;stroke-dashoffset:0"
       d="m 110.04653,532.91733 h 16.16244 l 9.09138,-110.10663 4.04061,110.10663 h 18.18274"
       id="path4236-2"
       inkscape:connector-curvature="0" />
    <path
       style="opacity:1;vector-effect:none;fill:#ff7e7e;fill-opacity:1;stroke:#000000;stroke-width:1px;stroke-linecap:butt;stroke-linejoin:miter;stroke-miterlimit:4;stroke-dasharray:none;stroke-dashoffset:0;stroke-opacity:1"
       d="m 278.23693,532.41225 13.13198,-6.06092 c 15.80869,-7.29633 12.02323,-43.3435 22.12184,-80.04571 7.56138,35.8164 3.8518,50.75533 21.76469,77.35173 4.0934,6.07775 12.10152,8.04061 12.10152,8.04061"
       id="path4236-7-6"
       inkscape:connector-curvature="0"
       sodipodi:nodetypes="cscsc" />
    <path
       style="opacity:1;vector-effect:none;fill:#ff7e7e;fill-opacity:1;stroke:#000000;stroke-width:1px;stroke-linecap:butt;stroke-linejoin:miter;stroke-miterlimit:4;stroke-dasharray:none;stroke-dashoffset:0;stroke-opacity:1"
       d="m 529.66034,531.34406 c 6.73625,-2.77792 4.57883,-0.21964 20.20874,-8.33376 22.73097,-11.80057 26.58795,-45.03673 37.2601,-44.97465 10.67214,0.0621 5.71872,17.95711 34.6627,44.55351 6.61419,6.07775 19.55385,8.04061 19.55385,8.04061"
       id="path4236-7-6-2"
       inkscape:connector-curvature="0"
       sodipodi:nodetypes="cszsc" />
    <text
       xml:space="preserve"
       style="font-style:normal;font-weight:normal;font-size:16px;line-height:1.25;font-family:sans-serif;letter-spacing:0px;word-spacing:0px;fill:#000000;fill-opacity:1;stroke:none"
       x="347.9852"
       y="141.83075"
       id="text855"><tspan
         sodipodi:role="line"
         id="tspan853"
         x="347.9852"
         y="141.83075"
         style="font-weight:bold;font-size:26.66666603px">PFR</tspan></text>
    <text
       xml:space="preserve"
       style="font-style:normal;font-weight:normal;font-size:16px;line-height:1.25;font-family:sans-serif;letter-spacing:0px;word-spacing:0px;fill:#000000;fill-opacity:1;stroke:none"
       x="-443.6362"
       y="76.841988"
       id="text859"
       transform="rotate(-90)"><tspan
         sodipodi:role="line"
         id="tspan857"
         x="-443.6362"
         y="76.841988">tracer concentration</tspan></text>
    <text
       xml:space="preserve"
       style="font-style:normal;font-weight:normal;font-size:16px;line-height:1.25;font-family:sans-serif;letter-spacing:0px;word-spacing:0px;fill:#000000;fill-opacity:1;stroke:none"
       x="295.45728"
       y="581.24713"
       id="text899"><tspan
         sodipodi:role="line"
         id="tspan897"
         x="295.45728"
         y="581.24713">distance along reactor</tspan></text>
    <text
       xml:space="preserve"
       style="font-style:normal;font-weight:normal;font-size:16px;line-height:1.25;font-family:sans-serif;letter-spacing:0px;word-spacing:0px;fill:#000000;fill-opacity:1;stroke:none"
       x="408.59439"
       y="278.20135"
       id="text903"><tspan
         sodipodi:role="line"
         id="tspan901"
         x="408.59439"
         y="278.20135"
         style="font-weight:bold">ideal PFR</tspan></text>
    <text
       xml:space="preserve"
       style="font-style:normal;font-weight:normal;font-size:16px;line-height:1.25;font-family:sans-serif;letter-spacing:0px;word-spacing:0px;fill:#000000;fill-opacity:1;stroke:none"
       x="364.74045"
       y="460.94287"
       id="text903-3"><tspan
         sodipodi:role="line"
         id="tspan901-5"
         x="364.74045"
         y="460.94287"
         style="font-weight:bold">PFR with dispersion</tspan></text>
  </g>
</svg>
