<?xml version="1.0" encoding="UTF-8" standalone="no"?>
<!-- Created with Inkscape (http://www.inkscape.org/) -->

<svg
   xmlns:dc="http://purl.org/dc/elements/1.1/"
   xmlns:cc="http://creativecommons.org/ns#"
   xmlns:rdf="http://www.w3.org/1999/02/22-rdf-syntax-ns#"
   xmlns:svg="http://www.w3.org/2000/svg"
   xmlns="http://www.w3.org/2000/svg"
   xmlns:sodipodi="http://sodipodi.sourceforge.net/DTD/sodipodi-0.dtd"
   xmlns:inkscape="http://www.inkscape.org/namespaces/inkscape"
   width="205.88036mm"
   height="96.31678mm"
   viewBox="0 0 205.88036 96.31678"
   version="1.1"
   id="svg8"
   sodipodi:docname="drawing.svg"
   inkscape:version="0.92.3 (2405546, 2018-03-11)">
  <defs
     id="defs2" />
  <sodipodi:namedview
     id="base"
     pagecolor="#ffffff"
     bordercolor="#666666"
     borderopacity="1.0"
     inkscape:pageopacity="0.0"
     inkscape:pageshadow="2"
     inkscape:zoom="1.4"
     inkscape:cx="262.44979"
     inkscape:cy="161.41164"
     inkscape:document-units="mm"
     inkscape:current-layer="layer1"
     showgrid="false"
     inkscape:window-width="1853"
     inkscape:window-height="1025"
     inkscape:window-x="67"
     inkscape:window-y="27"
     inkscape:window-maximized="1"
     fit-margin-top="0"
     fit-margin-left="0"
     fit-margin-right="0"
     fit-margin-bottom="0" />
  <metadata
     id="metadata5">
    <rdf:RDF>
      <cc:Work
         rdf:about="">
        <dc:format>image/svg+xml</dc:format>
        <dc:type
           rdf:resource="http://purl.org/dc/dcmitype/StillImage" />
        <dc:title></dc:title>
      </cc:Work>
    </rdf:RDF>
  </metadata>
  <g
     inkscape:label="Layer 1"
     inkscape:groupmode="layer"
     id="layer1"
     transform="translate(4.2894803,-136.66947)">
    <path
       style="fill:none;stroke:#000000;stroke-width:0.26458332px;stroke-linecap:butt;stroke-linejoin:miter;stroke-opacity:1"
       d="m 7.7485117,142.21875 v 78.99702 H 81.831843"
       id="path817"
       inkscape:connector-curvature="0" />
    <path
       style="fill:none;stroke:#000000;stroke-width:0.26458332px;stroke-linecap:butt;stroke-linejoin:miter;stroke-opacity:1"
       d="m 118.18362,142.41701 v 78.99703 h 74.08334"
       id="path817-3"
       inkscape:connector-curvature="0" />
    <path
       style="fill:none;stroke:#000000;stroke-width:0.26458332px;stroke-linecap:butt;stroke-linejoin:miter;stroke-opacity:1"
       d="m 118.18362,221.41404 32.2509,-56.51672"
       id="path836"
       inkscape:connector-curvature="0" />
    <path
       style="fill:none;stroke:#000000;stroke-width:0.26458332px;stroke-linecap:butt;stroke-linejoin:miter;stroke-opacity:1"
       d="M 89.013391,148.45535 C 64.749042,239.31298 24.262412,209.13596 17.197917,150.9122"
       id="path842"
       inkscape:connector-curvature="0"
       sodipodi:nodetypes="cc" />
    <text
       xml:space="preserve"
       style="font-style:normal;font-weight:normal;font-size:10.58333302px;line-height:1.25;font-family:sans-serif;letter-spacing:0px;word-spacing:0px;fill:#000000;fill-opacity:1;stroke:none;stroke-width:0.26458332"
       x="-208.81242"
       y="1.0710881"
       id="text846"
       transform="rotate(-90)"><tspan
         sodipodi:role="line"
         id="tspan844"
         x="-208.81242"
         y="1.0710881"
         style="font-size:7.05555534px;stroke-width:0.26458332">potential energy</tspan></text>
    <text
       xml:space="preserve"
       style="font-style:normal;font-weight:normal;font-size:10.2994833px;line-height:1.25;font-family:sans-serif;letter-spacing:0px;word-spacing:0px;fill:#000000;fill-opacity:1;stroke:none;stroke-width:0.25748709"
       x="39.279968"
       y="223.37511"
       id="text850"
       transform="scale(0.97317956,1.0275596)"><tspan
         sodipodi:role="line"
         id="tspan848"
         x="39.279968"
         y="223.37511"
         style="stroke-width:0.25748709">r<tspan
   style="font-size:6.694664px;baseline-shift:sub;stroke-width:0.25748709"
   id="tspan852">1</tspan></tspan></text>
    <text
       xml:space="preserve"
       style="font-style:normal;font-weight:normal;font-size:10.2994833px;line-height:1.25;font-family:sans-serif;letter-spacing:0px;word-spacing:0px;fill:#000000;fill-opacity:1;stroke:none;stroke-width:0.25748709"
       x="162.4041"
       y="224.67757"
       id="text850-6"
       transform="scale(0.97317957,1.0275596)"><tspan
         sodipodi:role="line"
         id="tspan848-7"
         x="162.4041"
         y="224.67757"
         style="stroke-width:0.25748709">r<tspan
   style="font-size:6.694664px;baseline-shift:sub;stroke-width:0.25748709"
   id="tspan852-5">1</tspan></tspan></text>
    <path
       style="fill:none;stroke:#000000;stroke-width:0.26458332px;stroke-linecap:butt;stroke-linejoin:miter;stroke-opacity:1"
       d="m 201.46307,148.13992 c -24.26435,90.85763 -64.75098,60.68061 -71.81547,2.45685"
       id="path842-3"
       inkscape:connector-curvature="0"
       sodipodi:nodetypes="cc" />
    <path
       style="fill:none;stroke:#000000;stroke-width:0.16500001;stroke-linecap:butt;stroke-linejoin:miter;stroke-miterlimit:4;stroke-dasharray:0.165, 0.33000001;stroke-dashoffset:0;stroke-opacity:1"
       d="m 178.04403,147.95094 c -9.45556,90.85763 -25.23276,60.68061 -27.98572,2.45685"
       id="path842-3-5"
       inkscape:connector-curvature="0"
       sodipodi:nodetypes="cc" />
    <text
       xml:space="preserve"
       style="font-style:normal;font-weight:normal;font-size:10.2994833px;line-height:1.25;font-family:sans-serif;letter-spacing:0px;word-spacing:0px;fill:#000000;fill-opacity:1;stroke:none;stroke-width:0.25748709"
       x="134.05141"
       y="178.69774"
       id="text850-6-6"
       transform="scale(0.97317957,1.0275596)"><tspan
         sodipodi:role="line"
         id="tspan848-7-2"
         x="134.05141"
         y="178.69774"
         style="stroke-width:0.25748709">r<tspan
   style="font-size:6.694664px;baseline-shift:sub;stroke-width:0.25748709"
   id="tspan852-5-9">2</tspan></tspan></text>
    <text
       xml:space="preserve"
       style="font-style:normal;font-weight:normal;font-size:10.58333302px;line-height:1.25;font-family:sans-serif;letter-spacing:0px;word-spacing:0px;fill:#000000;fill-opacity:1;stroke:none;stroke-width:0.26458332"
       x="-208.02672"
       y="116.47327"
       id="text846-1"
       transform="rotate(-90)"><tspan
         sodipodi:role="line"
         id="tspan844-2"
         x="-208.02672"
         y="116.47327"
         style="font-size:7.05555534px;stroke-width:0.26458332">potential energy</tspan></text>
    <text
       xml:space="preserve"
       style="font-style:normal;font-weight:normal;font-size:10.58333302px;line-height:1.25;font-family:sans-serif;letter-spacing:0px;word-spacing:0px;fill:#000000;fill-opacity:1;stroke:none;stroke-width:0.26458332"
       x="39.498508"
       y="144.52429"
       id="text946"><tspan
         sodipodi:role="line"
         id="tspan944"
         x="39.498508"
         y="144.52429"
         style="stroke-width:0.26458332">H2</tspan></text>
    <text
       xml:space="preserve"
       style="font-style:normal;font-weight:normal;font-size:10.58333302px;line-height:1.25;font-family:sans-serif;letter-spacing:0px;word-spacing:0px;fill:#000000;fill-opacity:1;stroke:none;stroke-width:0.26458332"
       x="150.8125"
       y="146.03607"
       id="text950"><tspan
         sodipodi:role="line"
         id="tspan948"
         x="150.8125"
         y="146.03607"
         style="stroke-width:0.26458332">H2O</tspan></text>
  </g>
</svg>
